…
I can confirm that these are Finnish names. The data seems to be arranged by the popularity of the names.

Soon, we’ll vectorize the names and create our name generator, but let’s first add one column to the first name tibbles. We might not need this information for this exercise, but in a real-world scenario I would do it, to be prepared in case we do.

4. Add a gender column with mutate()

So, we’ll just add a gender column. That way, we don’t lose the information when combining the two tibbles and we’ll be able to filter the data better, if needed.

names_fin_female <- names_fin_female %>% 
  mutate(gender = "female")

names_fin_female
## # A tibble: 8,674 x 3
##    Etunimi Lukumäärä gender
##    <chr>       <dbl> <chr> 
##  1 Tuula       30711 female
##  2 Anne        30371 female
##  3 Päivi       29977 female
##  4 Anna        29165 female
##  5 Ritva       28563 female
##  6 Leena       28354 female
##  7 Pirjo       28027 female
##  8 Sari        27696 female
##  9 Minna       27681 female
## 10 Marja       26507 female
## # ... with 8,664 more rows

names_fin_male <- names_fin_male %>% 
  mutate(gender = "male")

names_fin_male
## # A tibble: 6,516 x 3
##    Etunimi Lukumäärä gender
##    <chr>       <dbl> <chr> 
##  1 Juha        44567 male  
##  2 Timo        44188 male  
##  3 Matti       41696 male  
##  4 Kari        39558 male  
##  5 Mikko       38307 male  
##  6 Jari        37716 male  
##  7 Antti       37421 male  
##  8 Jukka       33722 male  
##  9 Mika        33513 male  
## 10 Markku      32485 male  
## # ... with 6,506 more rows
…
  # Skip the first row with the titles on it:
  skip = 1
)

anonymized_distribution_data
## # A tibble: 142 x 15
##    work_number work_title   rightsholder_ipi~ rightsholder_name rightsholder_ro~
##          <dbl> <chr>                    <dbl> <chr>             <chr>           
##  1    40281254 All Night L~         370920627 Brisa Bradtke-Ei~ Arranger        
##  2    34235492 NYPD Blue            597137869 Brisa Bradtke-Ei~ Arranger        
##  3    32917123 Garchomp              69762901 Brisa Bradtke-Ei~ Arranger        
##  4    44167446 NCIS                 239954359 Brisa Bradtke-Ei~ Arranger        
##  5    41563174 The Fifth E~         445863699 Brisa Bradtke-Ei~ Arranger        
##  6    42788497 Barbican             174888075 Brisa Bradtke-Ei~ Arranger        
##  7    40502187 Lickitung            149157191 Brisa Bradtke-Ei~ Arranger        
##  8    34163009 Up                   607932918 Brisa Bradtke-Ei~ Arranger        
##  9    42035276 Skuntank             305469216 Brisa Bradtke-Ei~ Arranger        
## 10    30603853 The Backyar~         519470211 Brisa Bradtke-Ei~ Arranger        
## # ... with 132 more rows, and 10 more variables: rightsholder_share_pct <dbl>,
## #   distribution_category_1 <chr>, distribution_category_2 <chr>,
## #   distribution_category_3 <chr>, venue_name <chr>, performer_name <chr>,
## #   performance_date_start <date>, performance_date_end <date>,
## #   iswc_code <chr>, amount_eur <chr>

Now we’re interested in replacing Brisa’s name in the rightsholder_name column with one from our new random name generator.

All it takes is inserting the previous str_glue() function to a mutate() function.

anonymized_distribution_data %>% 
  mutate(
    rightsholder_name = str_glue("{first_name_random} {last_name_random}")
  )
## # A tibble: 142 x 15
##    work_number work_title   rightsholder_ipi_~ rightsholder_na~ rightsholder_ro~
##          <dbl> <chr>                     <dbl> <glue>           <chr>           
<<<<<<< HEAD
##  1    40281254 All Night L~          370920627 Aasiya Suomela   Arranger        
##  2    34235492 NYPD Blue             597137869 Aasiya Suomela   Arranger        
##  3    32917123 Garchomp               69762901 Aasiya Suomela   Arranger        
##  4    44167446 NCIS                  239954359 Aasiya Suomela   Arranger        
##  5    41563174 The Fifth E~          445863699 Aasiya Suomela   Arranger        
##  6    42788497 Barbican              174888075 Aasiya Suomela   Arranger        
##  7    40502187 Lickitung             149157191 Aasiya Suomela   Arranger        
##  8    34163009 Up                    607932918 Aasiya Suomela   Arranger        
##  9    42035276 Skuntank              305469216 Aasiya Suomela   Arranger        
## 10    30603853 The Backyar~          519470211 Aasiya Suomela   Arranger        
||||||| fce1638
##  1    40281254 All Night L~          370920627 Amaia Erkas      Arranger        
##  2    34235492 NYPD Blue             597137869 Amaia Erkas      Arranger        
##  3    32917123 Garchomp               69762901 Amaia Erkas      Arranger        
##  4    44167446 NCIS                  239954359 Amaia Erkas      Arranger        
##  5    41563174 The Fifth E~          445863699 Amaia Erkas      Arranger        
##  6    42788497 Barbican              174888075 Amaia Erkas      Arranger        
##  7    40502187 Lickitung             149157191 Amaia Erkas      Arranger        
##  8    34163009 Up                    607932918 Amaia Erkas      Arranger        
##  9    42035276 Skuntank              305469216 Amaia Erkas      Arranger        
## 10    30603853 The Backyar~          519470211 Amaia Erkas      Arranger        
=======
##  1    40281254 All Night L~          370920627 Jaakoppi Munck   Arranger        
##  2    34235492 NYPD Blue             597137869 Jaakoppi Munck   Arranger        
##  3    32917123 Garchomp               69762901 Jaakoppi Munck   Arranger        
##  4    44167446 NCIS                  239954359 Jaakoppi Munck   Arranger        
##  5    41563174 The Fifth E~          445863699 Jaakoppi Munck   Arranger        
##  6    42788497 Barbican              174888075 Jaakoppi Munck   Arranger        
##  7    40502187 Lickitung             149157191 Jaakoppi Munck   Arranger        
##  8    34163009 Up                    607932918 Jaakoppi Munck   Arranger        
##  9    42035276 Skuntank              305469216 Jaakoppi Munck   Arranger        
## 10    30603853 The Backyar~          519470211 Jaakoppi Munck   Arranger        
>>>>>>> master
## # ... with 132 more rows, and 10 more variables: rightsholder_share_pct <dbl>,
## #   distribution_category_1 <chr>, distribution_category_2 <chr>,
## #   distribution_category_3 <chr>, venue_name <chr>, performer_name <chr>,
## #   performance_date_start <date>, performance_date_end <date>,
## #   iswc_code <chr>, amount_eur <chr>
…
