…
Okay, looks like we ended up with a list again. Let’s next turn it into a tibble by first using rbind to combine the list into a matrix.

3. Turn the list into a matrix and then to a tibble

First, using the do.call() function, let’s tell R to use rbind() to combine the rows of the two elements inside that list pdf_with_table. Then, using the pipe operator (%>%), one of my favorite things about Tidyverse, let’s feed the as_tibble() function to create a tibble.

pdf_with_table_tbl <- do.call(rbind, pdf_with_table) %>% 
  
  as_tibble()

pdf_with_table_tbl
## # A tibble: 101 x 4
##    V1                 V2                             V3    V4     
##    <chr>              <chr>                          <chr> <chr>  
##  1 artist             track                          rank  streams
##  2 Lil Nas X          MONTERO (Call Me By Your Name) 1     275091 
##  3 Blind Channel      Dark Side                      2     260403 
##  4 SANNI              Pettäjä                        3     255770 
##  5 Haloo Helsinki!    Piilotan mun kyyneleet         4     238089 
##  6 Doja Cat           Kiss Me More (feat. SZA)       5     236820 
##  7 Cledos, BEHM       Life (Sun luo)                 6     224839 
##  8 Masked Wolf        Astronaut In The Ocean         7     202630 
##  9 BEHM               Frida                          8     200910 
## 10 Pyhimys, Eino Grön Hyvät hautajaiset              9     196586 
## # ... with 91 more rows

Now, that looks better already, but we still need to turn the first row into column names. Let’s use a new package for that.

4. Turn first row into columns with janitor

Janitor is a nice little package to help clean data with. We’ll be using its row_to_names() function. And since we only need it this once, we might as well call it writing ‘package::function()’ instead of library(package) and function() separately.

pdf_with_table_named_tbl <- pdf_with_table_tbl %>%
  
  janitor::row_to_names(row_number = 1)

pdf_with_table_named_tbl
## # A tibble: 100 x 4
##    artist             track                          rank  streams
##    <chr>              <chr>                          <chr> <chr>  
##  1 Lil Nas X          MONTERO (Call Me By Your Name) 1     275091 
##  2 Blind Channel      Dark Side                      2     260403 
##  3 SANNI              Pettäjä                        3     255770 
##  4 Haloo Helsinki!    Piilotan mun kyyneleet         4     238089 
##  5 Doja Cat           Kiss Me More (feat. SZA)       5     236820 
##  6 Cledos, BEHM       Life (Sun luo)                 6     224839 
##  7 Masked Wolf        Astronaut In The Ocean         7     202630 
##  8 BEHM               Frida                          8     200910 
##  9 Pyhimys, Eino Grön Hyvät hautajaiset              9     196586 
## 10 costee             Ne voi liittyy (feat. BIZI)    10    194852 
## # ... with 90 more rows

Nice! We’re almost there. Now we’ll just change the column types for rank and streams.

5. Mutate rank and streams to numeric

Let’s now mutate the two numeric columns from character type to numeric.

pdf_with_table_final_tbl <- pdf_with_table_named_tbl %>%
  mutate(
    rank    = as.numeric(rank),
    streams = as.numeric(streams)
  )

pdf_with_table_final_tbl
## # A tibble: 100 x 4
##    artist             track                           rank streams
##    <chr>              <chr>                          <dbl>   <dbl>
##  1 Lil Nas X          MONTERO (Call Me By Your Name)     1  275091
##  2 Blind Channel      Dark Side                          2  260403
##  3 SANNI              Pettäjä                            3  255770
##  4 Haloo Helsinki!    Piilotan mun kyyneleet             4  238089
##  5 Doja Cat           Kiss Me More (feat. SZA)           5  236820
##  6 Cledos, BEHM       Life (Sun luo)                     6  224839
##  7 Masked Wolf        Astronaut In The Ocean             7  202630
##  8 BEHM               Frida                              8  200910
##  9 Pyhimys, Eino Grön Hyvät hautajaiset                  9  196586
## 10 costee             Ne voi liittyy (feat. BIZI)       10  194852
## # ... with 90 more rows
…
