Mining Text from PDF Files, Part 1: PDF with Text – why join the navy when you can be a pi{R}ate
…
Now, that looks better already, but we’re still not quite there. We want to get all the rows together.

4. Unlist() and create a tibble

Let’s start by unlisting the list and creating a tibble (a special kind of a data frame):

pdf_with_text_tbl <- as_tibble(unlist(pdf_with_text_list))

pdf_with_text_tbl
## # A tibble: 196 x 1
##    value                                                                        
##    <chr>                                                                        
##  1 "artist        track           rank          streams"                        
##  2 ""                                                                           
##  3 "Lil Nas X     MONTERO (Call Me By Your Name)               1             27~
##  4 ""                                                                           
##  5 "Blind Channel Dark Side       2             260403"                         
##  6 ""                                                                           
##  7 "SANNI         Pettäjä         3             255770"                         
##  8 ""                                                                           
##  9 "Haloo Helsinki!               Piilotan mun kyyneleet       4             23~
## 10 ""                                                                           
## # ... with 186 more rows

Nice! We now have all 196 rows together. But since it’s supposed to be a top 100 chart, we can see that there are 96 extra rows that need to be taken care of. Let’s next see what we can do about it.

5. Filter out empty rows and remove first row

Let’s now filter out the empty rows and remove the first row with slice(). It does contain the column titles, so you probably want to copy them to safety first. We’ll be needing them later.

pdf_with_text_filtered_tbl <- pdf_with_text_tbl %>%
  filter(value != "") %>%
  slice(-1) # Note to self and others: slice(n) to keep the nth row, slice(-n) to get rid of it 

pdf_with_text_filtered_tbl
## # A tibble: 100 x 1
##    value                                                                        
##    <chr>                                                                        
##  1 Lil Nas X     MONTERO (Call Me By Your Name)               1             275~
##  2 Blind Channel Dark Side       2             260403                           
##  3 SANNI         Pettäjä         3             255770                           
##  4 Haloo Helsinki!               Piilotan mun kyyneleet       4             238~
##  5 Doja Cat      Kiss Me More (feat. SZA)      5              236820            
##  6 Cledos, BEHM Life (Sun luo) 6               224839                           
##  7 Masked Wolf Astronaut In The Ocean          7              202630            
##  8 BEHM          Frida           8             200910                           
##  9 Pyhimys, Eino Grön            Hyvät hautajaiset            9             196~
## 10 costee        Ne voi liittyy (feat. BIZI)   10             194852            
## # ... with 90 more rows
…
           into     = c("artist", "track", "rank", "streams"),
           # into   = the new column names
           
           sep      = "[ ]{2,}",
           # sep    = the regex pattern to separate the value column by, in this case by using two or more empty characters
           
           remove   = TRUE)
## Warning: Expected 4 pieces. Missing pieces filled with `NA` in 38 rows [2, 6, 7,
## 13, 17, 18, 22, 25, 29, 34, 36, 42, 43, 46, 47, 49, 50, 51, 53, 55, ...].
           # remove = if TRUE, removes the original value column

pdf_with_text_separated_tbl
## # A tibble: 100 x 4
##    artist                            track                         rank  streams
##    <chr>                             <chr>                         <chr> <chr>  
##  1 Lil Nas X                         MONTERO (Call Me By Your Nam~ 1     275091 
##  2 Blind Channel Dark Side           2                             2604~ <NA>   
##  3 SANNI                             Pettäjä                       3     255770 
##  4 Haloo Helsinki!                   Piilotan mun kyyneleet        4     238089 
##  5 Doja Cat                          Kiss Me More (feat. SZA)      5     236820 
##  6 Cledos, BEHM Life (Sun luo) 6     224839                        <NA>  <NA>   
##  7 Masked Wolf Astronaut In The Oce~ 7                             2026~ <NA>   
##  8 BEHM                              Frida                         8     200910 
##  9 Pyhimys, Eino Grön                Hyvät hautajaiset             9     196586 
## 10 costee                            Ne voi liittyy (feat. BIZI)   10    194852 
## # ... with 90 more rows

As you can see, we received a warning about missing pieces that were now filled with NA. Since I don’t see a proggammable way out of this situation, we’ll try to fix things using the DataEditR package. Only one quick mutate() to change the rank and stream columns’ types from text to numeric:

pdf_with_text_separated_tbl <- pdf_with_text_separated_tbl %>% 
  mutate(
    rank    = as.integer(rank),
    streams = as.numeric(streams)
  )

pdf_with_text_separated_tbl
## # A tibble: 100 x 4
##    artist                            track                          rank streams
##    <chr>                             <chr>                         <int>   <dbl>
##  1 Lil Nas X                         MONTERO (Call Me By Your Na~      1  275091
##  2 Blind Channel Dark Side           2                            260403      NA
##  3 SANNI                             Pettäjä                           3  255770
##  4 Haloo Helsinki!                   Piilotan mun kyyneleet            4  238089
##  5 Doja Cat                          Kiss Me More (feat. SZA)          5  236820
##  6 Cledos, BEHM Life (Sun luo) 6     224839                           NA      NA
##  7 Masked Wolf Astronaut In The Oce~ 7                            202630      NA
##  8 BEHM                              Frida                             8  200910
##  9 Pyhimys, Eino Grön                Hyvät hautajaiset                 9  196586
## 10 costee                            Ne voi liittyy (feat. BIZI)      10  194852
## # ... with 90 more rows
…
fig. 3 - DataEditR (after)

We now have the pdf_with_text_final_tbl to finally save as an Excel file:

pdf_with_text_final_tbl
## # A tibble: 100 x 4
##    artist             track                           rank streams
##    <chr>              <chr>                          <dbl>   <dbl>
##  1 Lil Nas X          MONTERO (Call Me By Your Name)     1  275091
##  2 Blind Channel      Dark Side                          2  260403
##  3 SANNI              Pettäjä                            3  255770
##  4 Haloo Helsinki!    Piilotan mun kyyneleet             4  238089
##  5 Doja Cat           Kiss Me More (feat. SZA)           5  236820
##  6 Cledos, BEHM       Life (Sun luo)                     6  224839
##  7 Masked Wolf        Astronaut In The Ocean             7  202630
##  8 BEHM               Frida                              8  200910
##  9 Pyhimys, Eino Grön Hyvät hautajaiset                  9  196586
## 10 costee             Ne voi liittyy (feat. BIZI)       10  194852
## # ... with 90 more rows
…
