…
7. Create a character vector, split it into a list and then convert it to a tibble

Here we’re just using the same methods as in the two previous posts.

# Use tesseract to make a character vector and then split it into a list
png_2_list <- png_2_trimmed %>%
  ocr(engine = eng) %>%
  strsplit(split = "\n")

# Unlist that list and convert it to a tibble  
png_2_tbl <- as_tibble(unlist(png_2_list))

png_2_tbl
## # A tibble: 21 x 1
##    value                                                
##    <chr>                                                
##  1 "TRACK STREAMS (?"                                   
##  2 "MONTERO (Call Me By Your Name) by Li! Nas x 275,091"
##  3 "Dark Side by Blind Channe! 260.403"                 
##  4 "Pettaja by SANN| 255,770"                           
##  5 "Piilotan mun kyyneleet by Haloo Helsinki! 238,089"  
##  6 "Kiss Me More (feat. SZA) by Doja Cat 236,820"       
##  7 "Life (Sun luo) by Cledos, BEHM 224,839"             
##  8 "Astronaut In The Ocean by \\Viasked VVolf 202,630"  
##  9 "Frida by BEHM 200,910"                              
## 10 "Hyvat hautajaiset by Pyhimys, Eino Grén 196 , 586"  
## # ... with 11 more rows
…
